%YAML 1.1
%TAG !u! tag:unity3d.com,2011:
--- !u!114 &11400000
MonoBehaviour:
  m_ObjectHideFlags: 0
  m_CorrespondingSourceObject: {fileID: 0}
  m_PrefabInstance: {fileID: 0}
  m_PrefabAsset: {fileID: 0}
  m_GameObject: {fileID: 0}
  m_Enabled: 1
  m_EditorHideFlags: 0
  m_Script: {fileID: -1893448595, guid: a040fb66244a7f54289914d98ea4ef7d, type: 3}
  m_Name: movement
  m_EditorClassIdentifier: 
  _data:
    _json: '{"graph":{"variables":{"collection":{"$content":[],"$version":"A"},"$version":"A"},"controlInputDefinitions":[],"controlOutputDefinitions":[],"valueInputDefinitions":[],"valueOutputDefinitions":[],"title":null,"summary":null,"pan":{"x":737.7255,"y":248.835},"zoom":0.4999999,"elements":[{"coroutine":false,"defaultValues":{},"position":{"x":-235.0,"y":-28.0},"guid":"c5eaa5e7-f754-4a35-9b13-ded9bb37b0b3","$version":"A","$type":"Bolt.Start","$id":"9"},{"chainable":false,"member":{"name":"Rotate","parameterTypes":["System.Single","System.Single","System.Single"],"targetType":"UnityEngine.Transform","targetTypeName":"UnityEngine.Transform","$version":"A"},"defaultValues":{"target":null,"%xAngle":{"$content":0.0,"$type":"System.Single"},"%yAngle":{"$content":0.0,"$type":"System.Single"},"%zAngle":{"$content":0.0,"$type":"System.Single"}},"position":{"x":615.0,"y":157.0},"guid":"2ce83582-957c-4c43-8e19-3b93050ad29f","$version":"A","$type":"Bolt.InvokeMember","$id":"11"},{"specifyFallback":false,"kind":"Object","defaultValues":{"name":{"$content":"velRotacion","$type":"System.String"},"object":null},"position":{"x":21.0,"y":531.0},"guid":"c1d6e714-42d7-41a7-b60a-13b4a66ecffe","$version":"A","$type":"Bolt.GetVariable","$id":"14"},{"member":{"name":"deltaTime","parameterTypes":null,"targetType":"UnityEngine.Time","targetTypeName":"UnityEngine.Time","$version":"A"},"defaultValues":{},"position":{"x":240.0,"y":555.0},"guid":"fe4a3fe9-cd1a-41a6-9f84-6f9ab8bd4911","$version":"A","$type":"Bolt.GetMember","$id":"16"},{"defaultValues":{},"position":{"x":448.0,"y":401.0},"guid":"05a7cfc4-2f5b-4f21-824f-fdee19602a40","$version":"A","$type":"Bolt.GenericMultiply","$id":"19"},{"defaultValues":{},"position":{"x":-349.0,"y":328.0},"guid":"9bb4848d-636c-4bb2-b6a1-ae3914b26adf","$version":"A","$type":"Bolt.GenericMultiply","$id":"21"},{"coroutine":false,"defaultValues":{},"position":{"x":-227.0,"y":149.0},"guid":"b984f306-2932-4bdb-9afc-8e619f5c9f14","$version":"A","$type":"Bolt.Update","$id":"23"},{"chainable":false,"member":{"name":"Translate","parameterTypes":["System.Single","System.Single","System.Single"],"targetType":"UnityEngine.Transform","targetTypeName":"UnityEngine.Transform","$version":"A"},"defaultValues":{"target":null,"%x":{"$content":0.0,"$type":"System.Single"},"%y":{"$content":0.0,"$type":"System.Single"},"%z":{"$content":0.0,"$type":"System.Single"}},"position":{"x":7.0,"y":118.0},"guid":"fe99ae30-6f73-4e55-acf4-0bfcf5787639","$version":"A","$type":"Bolt.InvokeMember","$id":"25"},{"defaultValues":{},"position":{"x":257.0,"y":410.0},"guid":"ce31ff27-8ed6-46fc-a75a-a5c855645a99","$version":"A","$type":"Bolt.GenericMultiply","$id":"28"},{"chainable":false,"member":{"name":"Find","parameterTypes":["System.String"],"targetType":"UnityEngine.GameObject","targetTypeName":"UnityEngine.GameObject","$version":"A"},"defaultValues":{"%name":{"$content":"Capsule","$type":"System.String"}},"position":{"x":308.0,"y":-173.0},"guid":"6aff1820-c0a8-48a9-ba89-9bff208ba1ac","$version":"A","$type":"Bolt.InvokeMember","$id":"30"},{"chainable":false,"member":{"name":"GetAxis","parameterTypes":["System.String"],"targetType":"UnityEngine.Input","targetTypeName":"UnityEngine.Input","$version":"A"},"defaultValues":{"%axisName":{"$content":"Vertical","$type":"System.String"}},"position":{"x":-590.0,"y":298.0},"guid":"b02ac806-8896-47fd-9e56-d8318b5eb34d","$version":"A","$type":"Bolt.InvokeMember","$id":"33"},{"chainable":false,"member":{"name":"lockState","parameterTypes":null,"targetType":"UnityEngine.Cursor","targetTypeName":"UnityEngine.Cursor","$version":"A"},"defaultValues":{"input":{"$content":"Locked","$type":"UnityEngine.CursorLockMode"}},"position":{"x":137.0,"y":-173.0},"guid":"2f4c7c54-0bd0-40c5-8649-2ec1f9ff077d","$version":"A","$type":"Bolt.SetMember","$id":"36"},{"specifyFallback":false,"kind":"Object","defaultValues":{"name":{"$content":"velocidad","$type":"System.String"},"object":null},"position":{"x":-563.0,"y":434.0},"guid":"faba302c-a025-442c-a444-ff00d3eb0956","$version":"A","$type":"Bolt.GetVariable","$id":"39"},{"member":{"name":"deltaTime","parameterTypes":null,"targetType":"UnityEngine.Time","targetTypeName":"UnityEngine.Time","$version":"A"},"defaultValues":{},"position":{"x":-363.0,"y":472.0},"guid":"6acecfdd-1e16-48f3-9cb1-97d51857947d","$version":"A","$type":"Bolt.GetMember","$id":"41"},{"chainable":false,"member":{"name":"GetAxis","parameterTypes":["System.String"],"targetType":"UnityEngine.Input","targetTypeName":"UnityEngine.Input","$version":"A"},"defaultValues":{"%axisName":{"$content":"Mouse
      X","$type":"System.String"}},"position":{"x":16.0,"y":380.0},"guid":"f4e0e995-beec-4c5e-b97f-2b86348a92c2","$version":"A","$type":"Bolt.InvokeMember","$id":"44"},{"defaultValues":{},"position":{"x":-174.0,"y":320.0},"guid":"7eded20b-dd96-4287-be0b-c6a8b5afe73d","$version":"A","$type":"Bolt.GenericMultiply","$id":"47"},{"chainable":false,"member":{"name":"visible","parameterTypes":null,"targetType":"UnityEngine.Cursor","targetTypeName":"UnityEngine.Cursor","$version":"A"},"defaultValues":{"input":{"$content":false,"$type":"System.Boolean"}},"position":{"x":-70.0,"y":-171.0},"guid":"d355bd07-2a7a-4de9-b820-de847c9d537a","$version":"A","$type":"Bolt.SetMember","$id":"49"},{"chainable":false,"member":{"name":"SetActive","parameterTypes":["System.Boolean"],"targetType":"UnityEngine.GameObject","targetTypeName":"UnityEngine.GameObject","$version":"A"},"defaultValues":{"target":null,"%value":{"$content":true,"$type":"System.Boolean"}},"position":{"x":511.0,"y":-192.0},"guid":"bce060ab-7dfa-4d45-ac70-0ec2021e82e4","$version":"A","$type":"Bolt.InvokeMember","$id":"52"},{"sourceUnit":{"$ref":"36"},"sourceKey":"assigned","destinationUnit":{"$ref":"30"},"destinationKey":"enter","guid":"70027f36-b851-4b9c-87ed-2506097bc8c1","$type":"Bolt.ControlConnection"},{"sourceUnit":{"$ref":"30"},"sourceKey":"exit","destinationUnit":{"$ref":"52"},"destinationKey":"enter","guid":"659427b7-064f-44c3-a544-d6baa3a7b225","$type":"Bolt.ControlConnection"},{"sourceUnit":{"$ref":"9"},"sourceKey":"trigger","destinationUnit":{"$ref":"49"},"destinationKey":"assign","guid":"d63d8c09-8b04-49dc-b6dd-02d38c8e1f46","$type":"Bolt.ControlConnection"},{"sourceUnit":{"$ref":"49"},"sourceKey":"assigned","destinationUnit":{"$ref":"36"},"destinationKey":"assign","guid":"db50acc3-77ef-40dd-811b-8f33f0ce6c61","$type":"Bolt.ControlConnection"},{"sourceUnit":{"$ref":"23"},"sourceKey":"trigger","destinationUnit":{"$ref":"25"},"destinationKey":"enter","guid":"c61ce34c-e94a-4237-973f-329a25778e60","$type":"Bolt.ControlConnection"},{"sourceUnit":{"$ref":"25"},"sourceKey":"exit","destinationUnit":{"$ref":"11"},"destinationKey":"enter","guid":"b17eaeff-016c-42f3-970a-054247eab193","$type":"Bolt.ControlConnection"},{"sourceUnit":{"$ref":"16"},"sourceKey":"value","destinationUnit":{"$ref":"19"},"destinationKey":"b","guid":"011e76f5-1c94-4374-a18f-d951c1d80b42","$type":"Bolt.ValueConnection"},{"sourceUnit":{"$ref":"44"},"sourceKey":"result","destinationUnit":{"$ref":"28"},"destinationKey":"a","guid":"ef09d9cd-cda3-4da4-863c-fe50d4416770","$type":"Bolt.ValueConnection"},{"sourceUnit":{"$ref":"41"},"sourceKey":"value","destinationUnit":{"$ref":"47"},"destinationKey":"b","guid":"5b857036-ca78-4694-b3f3-c01cb5363374","$type":"Bolt.ValueConnection"},{"sourceUnit":{"$ref":"19"},"sourceKey":"product","destinationUnit":{"$ref":"11"},"destinationKey":"%yAngle","guid":"0859569b-6bd1-41ca-b027-47d28d366e7d","$type":"Bolt.ValueConnection"},{"sourceUnit":{"$ref":"14"},"sourceKey":"value","destinationUnit":{"$ref":"28"},"destinationKey":"b","guid":"2179bf8a-b5c0-495d-86ff-4220d6f062a8","$type":"Bolt.ValueConnection"},{"sourceUnit":{"$ref":"47"},"sourceKey":"product","destinationUnit":{"$ref":"25"},"destinationKey":"%z","guid":"3a7a9378-8aa3-4605-8fe9-c995d69619d2","$type":"Bolt.ValueConnection"},{"sourceUnit":{"$ref":"28"},"sourceKey":"product","destinationUnit":{"$ref":"19"},"destinationKey":"a","guid":"6e24e580-5dde-4433-841e-0c82d684cbae","$type":"Bolt.ValueConnection"},{"sourceUnit":{"$ref":"21"},"sourceKey":"product","destinationUnit":{"$ref":"47"},"destinationKey":"a","guid":"65f253f4-41ed-4581-9eb6-ae6447b815e3","$type":"Bolt.ValueConnection"},{"sourceUnit":{"$ref":"39"},"sourceKey":"value","destinationUnit":{"$ref":"21"},"destinationKey":"b","guid":"3451e6c8-a1d6-4aef-af7c-da7482ea742c","$type":"Bolt.ValueConnection"},{"sourceUnit":{"$ref":"33"},"sourceKey":"result","destinationUnit":{"$ref":"21"},"destinationKey":"a","guid":"0e11c2ac-5621-4ce0-9c71-bba58d61896a","$type":"Bolt.ValueConnection"},{"sourceUnit":{"$ref":"30"},"sourceKey":"result","destinationUnit":{"$ref":"52"},"destinationKey":"target","guid":"f64bcde7-4599-4b9d-ae1b-3b1d8b4d4bf4","$type":"Bolt.ValueConnection"}],"$version":"A"}}'
    _objectReferences: []
